number,firstname,lastname,maths,physics,chemistry,marks
1,Sirish,Pichai,77,68,43,87.5
2,Krishna,Sharma,50,78,63,65.4
3,Ram,Akkineni,60,78,56,78.4
4,Bheem,Yadav,70,96,87,94.3
5,Shyam,Varma,85,87,77,89.6
6,Harish,Vegesna,75,90,89,79.4
7,Tarun,Batchu,63,78,86,67.3
8,Vicky,Gandhi,82,77,68,83.5
9,Nikhil,Modi,75,88,90,77.9
10,Sai,Iyer,90,88,76,87.65

